<svg width="48" height="48" viewBox="0 0 48 48" fill="none" xmlns="http://www.w3.org/2000/svg">
<path d="M24.0002 0C10.8792 0 0.242188 9.947 0.242188 22.216C0.242188 29.196 3.68519 35.424 9.06819 39.497V48L17.1762 43.503C19.3372 44.108 21.6282 44.433 24.0002 44.433C37.1212 44.433 47.7582 34.486 47.7582 22.216C47.7582 9.946 37.1212 0 24.0002 0ZM26.5022 29.792L20.3572 23.408L8.52419 29.953L21.4982 16.185L27.6432 22.569L39.4772 16.025L26.5022 29.792Z" fill="#0086FF"/>
<path d="M26.5024 29.792L20.3574 23.408L8.52441 29.953L21.4984 16.185L27.6434 22.569L39.4774 16.025L26.5024 29.792Z" fill="white"/>
</svg>
