<svg width="94" height="64" viewBox="0 0 94 64" fill="none" xmlns="http://www.w3.org/2000/svg">
<g clip-path="url(#clip0_220_319)">
<path d="M91.0909 38.5939H32.9091C31.3091 38.5939 30 37.2848 30 35.6848V3.68476C30 2.08476 31.3091 0.775635 32.9091 0.775635H91.091C92.691 0.775635 94.0001 2.08476 94.0001 3.68476V35.6848C94 37.2848 92.6909 38.5939 91.0909 38.5939Z" fill="#039AF5"/>
<path d="M83.8182 26.9575C80.4727 26.9575 77.4182 28.5575 75.6727 31.1756C74.2182 30.4485 72.6182 29.8666 70.7273 29.8666C65.6364 29.8666 61.4182 33.6485 60.6909 38.5939H91.0909C92.5454 38.5939 93.7091 37.5758 94.0001 36.1211C93.4182 31.0303 89.0546 26.9575 83.8182 26.9575Z" fill="#039AF5"/>
<path d="M85.2728 35.6848H38.7273C38.7273 32.4848 36.1092 29.8667 32.9092 29.8667V9.50306C36.1092 9.50306 38.7273 6.88494 38.7273 3.68494H85.2728C85.2728 6.88494 87.8909 9.50306 91.0909 9.50306V29.8667C87.8909 29.8667 85.2728 32.4848 85.2728 35.6848Z" fill="#66C5FF"/>
<path d="M83.8182 26.9575C80.4727 26.9575 77.4182 28.5575 75.6727 31.1756C74.2182 30.4485 72.6182 29.8666 70.7273 29.8666C66.6546 29.8666 63.1637 32.1939 61.5637 35.6848H85.2728C85.2728 32.4848 87.7456 30.012 90.9456 29.8666C89.0546 28.1211 86.582 26.9575 83.8182 26.9575Z" fill="#039AF5"/>
<path d="M62.0001 32.7756C68.4267 32.7756 73.6365 26.9146 73.6365 19.6847C73.6365 12.4549 68.4267 6.59387 62.0001 6.59387C55.5736 6.59387 50.3638 12.4549 50.3638 19.6847C50.3638 26.9146 55.5736 32.7756 62.0001 32.7756Z" fill="#039AF5"/>
<path d="M44.5456 22.5939C46.1523 22.5939 47.4547 21.2914 47.4547 19.6848C47.4547 18.0781 46.1523 16.7756 44.5456 16.7756C42.9389 16.7756 41.6365 18.0781 41.6365 19.6848C41.6365 21.2914 42.9389 22.5939 44.5456 22.5939Z" fill="#039AF5"/>
<path d="M79.4545 22.5939C81.0612 22.5939 82.3637 21.2914 82.3637 19.6848C82.3637 18.0781 81.0612 16.7756 79.4545 16.7756C77.8479 16.7756 76.5454 18.0781 76.5454 19.6848C76.5454 21.2914 77.8479 22.5939 79.4545 22.5939Z" fill="#039AF5"/>
<path d="M63.4545 18.2303H60.5454C59.6726 18.2303 59.0909 17.6484 59.0909 16.7758C59.0909 15.903 59.6728 15.3213 60.5454 15.3213H64.909C65.7818 15.3213 66.3635 14.7394 66.3635 13.8668C66.3635 12.994 65.7816 12.4123 64.909 12.4123H63.4545C63.4545 11.5395 62.8726 10.9578 62 10.9578C61.1273 10.9578 60.5455 11.5396 60.5455 12.4123C58.0728 12.4123 56.1819 14.3031 56.1819 16.7759C56.1819 19.2486 58.0728 21.1395 60.5455 21.1395H63.4546C64.3274 21.1395 64.9091 21.7214 64.9091 22.594C64.9091 23.4668 64.3273 24.0485 63.4546 24.0485H59.091C58.2183 24.0485 57.6365 24.6304 57.6365 25.503C57.6365 26.3758 58.2184 26.9575 59.091 26.9575H60.5455C60.5455 27.8303 61.1274 28.412 62 28.412C62.8728 28.412 63.4545 27.8301 63.4545 26.9575C65.9273 26.9575 67.8181 25.0666 67.8181 22.5939C67.8181 20.1211 65.9273 18.2303 63.4545 18.2303Z" fill="white"/>
<path d="M67.8181 50.2304C73.4414 50.2304 78 45.6719 78 40.0486C78 34.4253 73.4414 29.8667 67.8181 29.8667C62.1948 29.8667 57.6362 34.4253 57.6362 40.0486C57.6362 45.6719 62.1948 50.2304 67.8181 50.2304Z" fill="#FFCA5D"/>
<path d="M80.9092 47.3213C86.5325 47.3213 91.091 42.7627 91.091 37.1394C91.091 31.5161 86.5325 26.9575 80.9092 26.9575C75.2859 26.9575 70.7273 31.5161 70.7273 37.1394C70.7273 42.7627 75.2859 47.3213 80.9092 47.3213Z" fill="#F6B545"/>
<path d="M80.9092 26.9575C75.2364 26.9575 70.7273 31.4666 70.7273 37.1394C70.7273 42.8121 75.2364 47.3213 80.9092 47.3213C86.5819 47.3213 91.091 42.8121 91.091 37.1394C91.091 31.4666 86.5819 26.9575 80.9092 26.9575ZM80.9092 44.4121C76.8364 44.4121 73.6364 41.2121 73.6364 37.1394C73.6364 33.0666 76.8364 29.8666 80.9092 29.8666C84.9819 29.8666 88.1819 33.0666 88.1819 37.1394C88.1819 41.2121 84.9819 44.4121 80.9092 44.4121Z" fill="#FFCB5B"/>
<path d="M80.9092 47.1758C86.5819 47.3213 91.0911 42.6667 91.0911 37.1394H90.9456C90.2183 37.1394 89.6364 37.7213 89.4911 38.4485C89.2002 40.4849 88.1819 42.3758 86.7274 43.6849C85.5638 44.8485 83.9638 45.5758 82.2183 45.8667C81.4909 45.8667 80.9092 46.4485 80.9092 47.1758Z" fill="#F6B545"/>
<path d="M80.9092 27.1031C75.2364 26.9576 70.7273 31.6122 70.7273 37.1394H70.8728C71.6 37.1394 72.1819 36.5576 72.3273 35.8303C72.6182 33.7939 73.6364 31.9031 75.0909 30.5939C76.2545 29.4303 77.8545 28.7031 79.6 28.4121C80.3273 28.4122 80.9092 27.8303 80.9092 27.1031Z" fill="#FFE27A"/>
<path d="M74.6546 38.1576C74.6546 34.0848 77.8546 30.8848 81.9273 30.8848C83.6728 30.8848 85.2728 31.4667 86.5818 32.6303C85.1273 30.8848 83.2365 29.8667 80.9092 29.8667C76.8365 29.8667 73.6365 33.0667 73.6365 37.1395C73.6365 39.4667 74.6546 41.3576 76.2546 42.6667C75.2365 41.5031 74.6546 39.9031 74.6546 38.1576Z" fill="#F19920"/>
<path d="M85.2727 41.6486C85.1272 41.6486 84.9818 41.6486 84.8363 41.5031C84.5454 41.2122 84.5454 40.7759 84.8363 40.485C85.7091 39.6122 86.1454 38.3031 86.1454 37.1395C86.1454 36.7031 86.4363 36.4122 86.8727 36.4122C87.3091 36.4122 87.5999 36.7031 87.5999 37.1395C87.5999 38.7395 87.0181 40.3395 85.9999 41.5031C85.7091 41.6486 85.4181 41.6486 85.2727 41.6486Z" fill="#FFCB5B"/>
<path d="M80.9091 41.5031C80.0363 41.5031 79.4546 40.9213 79.4546 40.0486V34.2305C79.4546 33.3578 80.0365 32.776 80.9091 32.776C81.7817 32.776 82.3636 33.3579 82.3636 34.2305V40.0486C82.3636 40.9213 81.7818 41.5031 80.9091 41.5031Z" fill="#F19920"/>
<path d="M86.2908 45.7212C85.2727 42.0848 82.6544 39.1757 79.3089 37.8667C78.7271 34.5212 76.5453 31.6122 73.7817 29.8667C72.0362 31.7576 70.8726 34.2303 70.8726 36.9939C70.8726 42.6667 75.3817 47.1758 81.0544 47.1758C82.9454 47.3212 84.6908 46.7394 86.2908 45.7212Z" fill="#F19920"/>
<path d="M76.2545 42.6667C75.2364 41.3576 74.509 39.7576 74.509 38.0122C74.509 35.9758 75.3817 34.0849 76.8362 32.7758C76.5454 32.3394 76.2544 32.0486 75.9635 31.7577C74.509 33.0668 73.6362 34.9577 73.6362 37.1396C73.6364 39.4667 74.6545 41.3576 76.2545 42.6667Z" fill="#E78825"/>
<path d="M79.4546 38.0122V40.0486C79.4546 40.9213 80.0365 41.5031 80.9091 41.5031C81.7817 41.5031 82.3636 40.9212 82.3636 40.0486V39.7577C81.491 39.0303 80.4728 38.4486 79.4546 38.0122Z" fill="#E78825"/>
<path d="M86.2909 45.7212C86 44.7031 85.709 43.8303 85.1273 42.9576C83.9637 43.8303 82.5092 44.4121 80.9092 44.4121C76.8364 44.4121 73.6364 41.2121 73.6364 37.1393C73.6364 34.9575 74.5092 33.0666 75.9637 31.7575C75.2364 31.0302 74.5092 30.4483 73.6364 30.012C71.8909 31.9028 70.7273 34.3756 70.7273 37.1392C70.7273 42.812 75.2364 47.3211 80.9092 47.3211C82.9455 47.3212 84.6909 46.7395 86.2909 45.7212Z" fill="#F6B545"/>
<path d="M85.8547 44.4122C84.8366 45.1395 83.5274 45.5759 82.2183 45.8667C81.4911 46.0122 80.9092 46.594 80.9092 47.3212C82.9456 47.3212 84.6911 46.7394 86.2911 45.7212C86.1457 45.2849 86.0002 44.8486 85.8547 44.4122Z" fill="#F19920"/>
<path d="M73.6364 30.0122C71.8909 31.9031 70.7273 34.3758 70.7273 37.1395H70.8728C71.6 37.1395 72.1819 36.5576 72.3273 35.8303C72.6182 33.794 73.6364 32.0485 74.9454 30.7395C74.5092 30.594 74.0728 30.3031 73.6364 30.0122Z" fill="#FFCB5B"/>
<path d="M67.8181 50.2304C73.4414 50.2304 78 45.6719 78 40.0486C78 34.4253 73.4414 29.8667 67.8181 29.8667C62.1948 29.8667 57.6362 34.4253 57.6362 40.0486C57.6362 45.6719 62.1948 50.2304 67.8181 50.2304Z" fill="#F6B545"/>
<path d="M66.3635 47.3212C66.3635 48.3393 66.509 49.212 66.7999 50.2303C67.0908 50.2303 67.5272 50.2303 67.818 50.2303C73.4908 50.2303 77.9999 45.7212 77.9999 40.0484C77.9999 39.0303 77.8544 38.1575 77.5635 37.1393C77.2726 37.1393 76.8363 37.1393 76.5454 37.1393C70.8727 37.1394 66.3635 41.6485 66.3635 47.3212Z" fill="#F19920"/>
<path d="M67.8181 29.8667C62.1454 29.8667 57.6362 34.3758 57.6362 40.0486C57.6362 45.7213 62.1454 50.2304 67.8181 50.2304C73.4909 50.2304 78 45.7212 78 40.0486C78 34.3759 73.4909 29.8667 67.8181 29.8667ZM67.8181 47.3212C63.7454 47.3212 60.5454 44.1212 60.5454 40.0484C60.5454 35.9757 63.7454 32.7757 67.8181 32.7757C71.8909 32.7757 75.0909 35.9757 75.0909 40.0484C75.0909 44.1212 71.8909 47.3212 67.8181 47.3212Z" fill="#FFCB5B"/>
<path d="M67.8181 50.0848C73.4909 50.2303 78 45.5758 78 40.0486H77.8545C77.1272 40.0486 76.5454 40.6305 76.4 41.3577C76.1091 43.3941 75.0909 45.285 73.6364 46.5941C72.4727 47.7577 70.8727 48.485 69.1272 48.776C68.4 48.7758 67.8181 49.3576 67.8181 50.0848Z" fill="#F6B545"/>
<path d="M67.8181 30.0122C62.1454 29.8667 57.6362 34.5214 57.6362 40.0486H57.7817C58.509 40.0486 59.0909 39.4667 59.2362 38.7395C59.5271 36.7031 60.5454 34.8122 61.9999 33.5031C63.1635 32.3395 64.7635 31.6122 66.509 31.3212C67.2364 31.3212 67.8181 30.7395 67.8181 30.0122Z" fill="#FFE27A"/>
<path d="M61.5637 41.0666C61.5637 36.9939 64.7637 33.7939 68.8364 33.7939C70.5819 33.7939 72.1819 34.3758 73.4909 35.5394C72.0364 33.7939 70.1454 32.7758 67.8182 32.7758C63.7454 32.7758 60.5454 35.9758 60.5454 40.0485C60.5454 42.3758 61.5635 44.2666 63.1635 45.5758C62.1455 44.4121 61.5637 42.8121 61.5637 41.0666Z" fill="#F19920"/>
<path d="M72.1819 44.5575C72.0364 44.5575 71.891 44.5575 71.7455 44.412C71.4546 44.1212 71.4546 43.6848 71.7455 43.3939C72.6182 42.5212 73.0546 41.212 73.0546 40.0484C73.0546 39.612 73.3455 39.3212 73.7819 39.3212C74.2183 39.3212 74.5091 39.612 74.5091 40.0484C74.5091 41.6484 73.9273 43.2484 72.9091 44.412C72.6181 44.5575 72.3272 44.5575 72.1819 44.5575Z" fill="#FFCB5B"/>
<path d="M67.818 44.4122C66.9453 44.4122 66.3635 43.8303 66.3635 42.9577V37.1396C66.3635 36.2668 66.9454 35.6851 67.818 35.6851C68.6908 35.6851 69.2725 36.2669 69.2725 37.1396V42.9577C69.2727 43.8303 68.6908 44.4122 67.818 44.4122Z" fill="#F19920"/>
<path d="M74.5094 37.2848C74.8003 38.1575 75.0913 39.0303 75.0913 40.0484C75.0913 44.1212 71.8913 47.3212 67.8185 47.3212C67.3821 47.3212 66.8004 47.3212 66.364 47.1757V47.3212C66.364 48.3393 66.5095 49.212 66.8004 50.2303C67.0913 50.2303 67.5276 50.2303 67.8185 50.2303C73.4913 50.2303 78.0004 45.7212 78.0004 40.0484C78.0004 39.0303 77.8549 38.1575 77.564 37.1393C77.2731 37.1393 76.8368 37.1393 76.5459 37.1393C75.8184 37.1394 75.2366 37.1394 74.5094 37.2848Z" fill="#F6B545"/>
<path d="M75.0911 58.9576C80.7143 58.9576 85.2729 54.399 85.2729 48.7757C85.2729 43.1525 80.7143 38.5939 75.0911 38.5939C69.4678 38.5939 64.9092 43.1525 64.9092 48.7757C64.9092 54.399 69.4678 58.9576 75.0911 58.9576Z" fill="#F6B545"/>
<path d="M75.0911 38.5939C69.4183 38.5939 64.9092 43.103 64.9092 48.7757C64.9092 54.4485 69.4183 58.9576 75.0911 58.9576C80.7638 58.9576 85.2729 54.4485 85.2729 48.7757C85.2729 43.103 80.7638 38.5939 75.0911 38.5939ZM75.0911 56.0485C71.0183 56.0485 67.8183 52.8485 67.8183 48.7757C67.8183 44.703 71.0183 41.503 75.0911 41.503C79.1638 41.503 82.3638 44.703 82.3638 48.7757C82.3638 52.8485 79.1638 56.0485 75.0911 56.0485Z" fill="#FFCB5B"/>
<path d="M75.0908 58.8121C80.7636 58.9576 85.2727 54.303 85.2727 48.7758H85.1272C84.3999 48.7758 83.8181 49.3576 83.6727 50.0849C83.3818 52.1213 82.3636 54.0121 80.9091 55.3213C79.7454 56.4849 78.1454 57.2121 76.3999 57.5031C75.6727 57.503 75.0908 58.0848 75.0908 58.8121Z" fill="#F6B545"/>
<path d="M75.0911 38.7394C69.4183 38.5939 64.9092 43.2485 64.9092 48.7758H65.0547C65.7819 48.7758 66.3638 48.1939 66.5092 47.4667C66.8001 45.4303 67.8183 43.5394 69.2728 42.2303C70.4364 41.0667 72.0364 40.3394 73.7819 40.0484C74.5093 40.0485 75.0911 39.4667 75.0911 38.7394Z" fill="#FFE27A"/>
<path d="M68.8364 49.7939C68.8364 45.7212 72.0364 42.5212 76.1091 42.5212C77.8546 42.5212 79.4546 43.1031 80.7636 44.2667C79.3091 42.5212 77.4181 41.5031 75.0909 41.5031C71.0181 41.5031 67.8181 44.7031 67.8181 48.7758C67.8181 51.1031 68.8362 52.9939 70.4362 54.3031C69.4181 53.1394 68.8364 51.5394 68.8364 49.7939Z" fill="#F19920"/>
<path d="M79.4546 53.2848C79.3091 53.2848 79.1637 53.2848 79.0182 53.1393C78.7273 52.8485 78.7273 52.4121 79.0182 52.1212C79.891 51.2485 80.3273 49.9393 80.3273 48.7757C80.3273 48.3393 80.6182 48.0485 81.0546 48.0485C81.491 48.0485 81.7818 48.3393 81.7818 48.7757C81.7818 50.3757 81.2 51.9757 80.1818 53.1393C79.891 53.2848 79.6001 53.2848 79.4546 53.2848Z" fill="#FFCB5B"/>
<path d="M75.091 53.1395C74.2182 53.1395 73.6365 52.5576 73.6365 51.685V45.8667C73.6365 44.994 74.2183 44.4122 75.091 44.4122C75.9637 44.4122 76.5455 44.9941 76.5455 45.8667V51.6849C76.5456 52.5576 75.9637 53.1395 75.091 53.1395Z" fill="#F19920"/>
</g>
<line x1="26" y1="13.5" x2="8" y2="13.5" stroke="#039AF5" stroke-width="3"/>
<line x1="26" y1="33.5" x2="8" y2="33.5" stroke="#039AF5" stroke-width="3"/>
<line x1="26" y1="23.5" y2="23.5" stroke="#039AF5" stroke-width="3"/>
<defs>
<clipPath id="clip0_220_319">
<rect width="64" height="64" fill="white" transform="translate(30)"/>
</clipPath>
</defs>
</svg>
