<svg width="40" height="40" viewBox="0 0 40 40" fill="none" xmlns="http://www.w3.org/2000/svg">
<path d="M33.571 26.3403H24.1476C22.8851 28.3378 21.4999 30.2552 20.0001 32.0812C18.5002 30.2552 17.1151 28.3378 15.8526 26.3403H6.42914L1.9707 38.0294H38.0295L33.571 26.3403Z" fill="#DFEEF4"/>
<path d="M20.0004 1.97186C17.4552 1.97195 15.0143 2.98307 13.2145 4.78281C11.4148 6.58256 10.4036 9.02351 10.4036 11.5687C10.3473 20.725 20.0004 32.0812 20.0004 32.0812C20.0004 32.0812 29.6536 20.725 29.5973 11.5687C29.5972 9.02351 28.5861 6.58256 26.7864 4.78281C24.9866 2.98307 22.5457 1.97195 20.0004 1.97186ZM20.0004 15.6406C19.1951 15.6406 18.4078 15.4018 17.7382 14.9544C17.0686 14.507 16.5467 13.871 16.2385 13.127C15.9303 12.3829 15.8497 11.5642 16.0068 10.7744C16.1639 9.98449 16.5517 9.25895 17.1212 8.68949C17.6907 8.12003 18.4162 7.73222 19.2061 7.5751C19.9959 7.41799 20.8146 7.49863 21.5587 7.80682C22.3027 8.11501 22.9387 8.63691 23.3861 9.30653C23.8335 9.97614 24.0723 10.7634 24.0723 11.5687C24.0725 12.1035 23.9673 12.6331 23.7628 13.1272C23.5582 13.6213 23.2583 14.0703 22.8801 14.4484C22.502 14.8266 22.053 15.1265 21.5589 15.3311C21.0648 15.5356 20.5352 15.6408 20.0004 15.6406Z" fill="#039AF5"/>
<path d="M34.6059 29.05L16.6121 35.45L9.59961 26.3406H15.8527C17.1149 28.3381 18.4999 30.2553 19.9996 32.0812C21.4993 30.2553 22.8843 28.3381 24.1465 26.3406H33.5715L34.6059 29.05Z" fill="#FF9519"/>
<path d="M9.3623 38.0294L27.1736 31.6937L32.0498 38.0294H9.3623Z" fill="#14CC5D"/>
</svg>
