<svg width="118" height="34" viewBox="0 0 118 34" fill="none" xmlns="http://www.w3.org/2000/svg">
<path d="M27.7695 0H8.56534C7.50616 0 6.47185 0.858869 6.2532 1.91806L0.0407938 32.0832C-0.177851 33.1424 0.50427 34 1.56346 34H20.7663C21.8255 34 22.8598 33.1411 23.0784 32.0832L29.2908 1.91806C29.5095 0.858869 28.8273 0 27.7695 0ZM23.7186 9.83904H15.7191L14.7542 14.3651H22.4735L21.2101 20.3301H13.4908L11.3331 30.4689H4.82481L10.4742 3.87408H24.9821L23.7186 9.83904Z" fill="#FF9F0D"/>
<path d="M49.6302 16.6471C48.8342 17.9812 47.9112 19.0443 46.8585 19.8404C45.5964 20.7634 44.2505 21.3958 42.8234 21.7349C41.7236 22.0033 40.3201 22.1394 38.6128 22.1394H35.6657L33.8943 30.4715H27.386L33.0354 3.87665H41.7367C42.5786 3.87665 43.2856 3.89367 43.859 3.92902C44.6419 3.97615 45.3503 4.05732 45.9813 4.17516C47.5367 4.45534 48.7177 5.00653 49.5255 5.82482C51.2327 7.591 51.7708 9.93587 51.1398 12.8594C50.8688 14.1543 50.366 15.4177 49.6302 16.6471ZM43.77 10.3653C43.1612 10.0144 42.1675 9.83898 40.7875 9.83898H38.279L36.9291 16.1732H39.6838C40.9931 16.1732 42.0221 15.9728 42.771 15.5748C43.7412 15.0721 44.3552 14.2067 44.6131 12.9786C44.8815 11.7282 44.6 10.8576 43.77 10.3653Z" fill="#039AF5"/>
<path d="M49.6406 30.4702L55.2887 3.87537H61.2537L55.6043 30.4702H49.6406Z" fill="#039AF5"/>
<path d="M72.4018 30.4703L72.8574 28.348H72.788C72.0862 29.3653 71.2208 30.0971 70.1917 30.541C69.3028 30.9272 68.2501 31.1197 67.0338 31.1197C64.4965 31.1197 62.7185 30.2844 61.7012 28.6111C61.1513 27.6763 60.8594 26.7062 60.824 25.698C60.79 24.9387 60.9235 23.8559 61.2273 22.4537L63.7541 10.5238H69.7191L67.3677 21.5582C67.0993 22.8452 67.0993 23.7931 67.3677 24.4006C67.695 25.1613 68.4792 25.5409 69.7191 25.5409C71.9998 25.5409 73.4269 24.1898 74.0004 21.4888L76.3334 10.5251H82.2984L78.0512 30.4703H72.4018Z" fill="#039AF5"/>
<path d="M94.6564 29.4346C92.8784 30.5802 90.8962 31.1524 88.7084 31.1524C86.5338 31.1524 84.837 30.5973 83.6207 29.487C82.3114 28.3074 81.7668 26.6577 81.9894 24.5407H87.919C87.8378 25.7674 88.4623 26.3828 89.7964 26.3828C90.311 26.3828 90.8019 26.2545 91.2707 25.9965C91.797 25.7046 92.1125 25.3131 92.2172 24.8208C92.3455 24.2029 92.1413 23.6936 91.6032 23.2943L90.8137 22.874L87.6205 21.6289C86.3335 21.1248 85.3816 20.5003 84.761 19.7514C83.965 18.8166 83.7019 17.705 83.9716 16.418C84.3918 14.4411 85.544 12.8281 87.4267 11.5764C89.1575 10.4191 91.052 9.83905 93.1115 9.83905C95.205 9.83905 96.8193 10.3601 97.9531 11.401C99.1694 12.5112 99.6538 14.0915 99.409 16.1379H93.5488C93.736 15.1324 93.2267 14.6296 92.0222 14.6296C90.887 14.6296 90.2219 15.0748 90.0229 15.9624C89.8828 16.6288 90.2979 17.1735 91.2693 17.5951C91.5849 17.7469 92.0758 17.9276 92.7423 18.1384C92.7999 18.1489 92.8706 18.1672 92.953 18.1908L94.4613 18.6988C95.1277 18.9344 95.6894 19.1793 96.1463 19.4359C96.7198 19.7514 97.1754 20.1141 97.5145 20.5226C98.3668 21.494 98.6247 22.7745 98.2856 24.3652C97.8313 26.4823 96.6216 28.1725 94.6564 29.4346Z" fill="#039AF5"/>
<path d="M111.072 9.97L109.981 15.1167H105.212L106.302 9.97H101.185L102.202 5.20039H107.32L108.41 0.0537109H113.18L112.089 5.20039H117.207L116.19 9.97H111.072Z" fill="#FF9F0D"/>
</svg>
