<svg width="15" height="16" viewBox="0 0 15 16" fill="none" xmlns="http://www.w3.org/2000/svg">
<path d="M6.2499 4L5.36865 4.94L8.23115 8L5.36865 11.06L6.2499 12L9.9999 8L6.2499 4Z" fill="#001739"/>
</svg>
