<svg width="40" height="40" viewBox="0 0 40 40" fill="none" xmlns="http://www.w3.org/2000/svg">
<path d="M26.8318 19.998C26.8325 19.1181 26.6616 18.2366 26.3188 17.4082C25.9932 16.6213 25.5052 15.8786 24.8543 15.2277C24.2033 14.5769 23.4605 14.0888 22.6735 13.7632C21.8451 13.4206 20.9637 13.2495 20.084 13.2502V10.9179C21.2683 10.9168 22.4516 11.1458 23.5607 11.6047C24.6391 12.0509 25.6442 12.707 26.5097 13.5723C27.375 14.4374 28.0311 15.4426 28.4773 16.521C28.9362 17.6302 29.1651 18.8136 29.1641 19.998H26.8318Z" fill="#FF9519"/>
<path d="M31.0423 19.998C31.0431 18.5691 30.7654 17.1387 30.2092 15.7949C29.6782 14.5121 28.8859 13.3047 27.8316 12.2504C26.7772 11.1961 25.5699 10.4037 24.2871 9.87279C22.9432 9.31663 21.5129 9.03901 20.084 9.03973V6.70737C21.8176 6.70644 23.5499 7.04199 25.1742 7.71424C26.7487 8.36583 28.2185 9.32633 29.4871 10.5949C30.7557 11.8635 31.7162 13.3333 32.3678 14.9078C33.04 16.5321 33.3756 18.2644 33.3746 19.998H31.0423Z" fill="#FF9519"/>
<path d="M34.9636 19.998C34.9643 18.058 34.5872 16.1163 33.8323 14.2925C33.11 12.5477 32.0342 10.9077 30.6043 9.47775C29.1743 8.04784 27.5342 6.97208 25.7895 6.24974C23.9656 5.49477 22.024 5.1177 20.084 5.11842V2.78595C22.3291 2.78512 24.5727 3.22014 26.6767 4.0911C28.7132 4.93406 30.6157 6.17796 32.2598 7.82218C33.9039 9.46628 35.1478 11.3689 35.9908 13.4053C36.8618 15.5093 37.2968 17.753 37.2959 19.9979H34.9636V19.998Z" fill="#FF9519"/>
<path fill-rule="evenodd" clip-rule="evenodd" d="M29.3499 37.6101C33.5661 37.5311 35.969 34.8959 37.1986 32.864C37.937 31.6438 37.6004 30.0609 36.425 29.2536L30.8997 25.4589C29.7624 24.6778 28.2181 24.8854 27.3278 25.9393L26.0847 27.4105C25.961 27.3986 25.8379 27.3828 25.7152 27.3635C21.5927 26.7114 13.3705 18.4892 12.7186 14.3669C12.6992 14.2444 12.6834 14.1211 12.6716 13.9974L14.1428 12.7543C15.1967 11.8637 15.4044 10.3196 14.6231 9.18238L10.8282 3.65692C10.021 2.48149 8.43782 2.1449 7.21789 2.88325C5.18586 4.1129 2.55078 6.5156 2.47177 10.732C1.78155 18.587 21.4945 38.3002 29.3499 37.6101Z" fill="#039AF5"/>
</svg>
